[{"id":1,"fecha":"4/23/2019","importe":84,"latitud":18.4856105,"longitud":-69.9012696,"ciudad":"Oviedo"},
{"id":2,"fecha":"9/4/2018","importe":89,"latitud":57.8352611,"longitud":61.6978774,"ciudad":"Alapayevsk"},
{"id":3,"fecha":"11/20/2018","importe":31,"latitud":51.811764,"longitud":18.7885677,"ciudad":"Pęczniew"},
{"id":4,"fecha":"10/28/2018","importe":55,"latitud":40.781499,"longitud":-7.9131603,"ciudad":"Calde"},
{"id":5,"fecha":"1/16/2019","importe":71,"latitud":25.111382,"longitud":117.549211,"ciudad":"Xipi"},
{"id":6,"fecha":"10/15/2018","importe":94,"latitud":10.4911049,"longitud":-74.794526,"ciudad":"Salamina"},
{"id":7,"fecha":"7/27/2018","importe":49,"latitud":47.8018062,"longitud":38.4885354,"ciudad":"Amvrosiyivka"},
{"id":8,"fecha":"1/28/2019","importe":66,"latitud":32.110878,"longitud":118.724049,"ciudad":"Hejiayan"},
{"id":9,"fecha":"5/22/2019","importe":93,"latitud":29.8743418,"longitud":-95.5485295,"ciudad":"Houston"},
{"id":10,"fecha":"12/11/2018","importe":45,"latitud":-7.258661,"longitud":107.7710234,"ciudad":"Situsari"}]
