[{"id":1,"fecha":"8/24/2018","importe":52,"latitud":26.079079,"longitud":113.950153},
{"id":2,"fecha":"7/15/2018","importe":2,"latitud":7.6949299,"longitud":18.6264694},
{"id":3,"fecha":"1/29/2019","importe":61,"latitud":40.5740471,"longitud":-8.6441655},
{"id":4,"fecha":"3/23/2019","importe":78,"latitud":1.5376351,"longitud":110.321945},
{"id":5,"fecha":"7/5/2018","importe":15,"latitud":45.6592536,"longitud":40.7666934},
{"id":6,"fecha":"10/8/2018","importe":31,"latitud":55.1970692,"longitud":38.3579129},
{"id":7,"fecha":"9/9/2018","importe":19,"latitud":51.3591174,"longitud":112.484985},
{"id":8,"fecha":"3/16/2019","importe":74,"latitud":-32.9269882,"longitud":-60.6935861},
{"id":9,"fecha":"4/22/2019","importe":21,"latitud":29.76,"longitud":-95.36},
{"id":10,"fecha":"6/4/2019","importe":100,"latitud":-2.0865267,"longitud":120.6832556}]
